861762697
607287692
934632501
308997909
439102952
550047523
64767786
268346951
994198694
556191413
577431485
36857894
431265649
643735962
925760016
312959801
236874520
44058947
591640933
48699989
978311847
85359451
176469383
52438903
212964416
946719971
974090515
697626346
899752810
548629422
200192371
206428643
165110638
493615361
75969312
68954416
724050697
116909445
728560773
28163262
96918145
967738085
522617880
878813298
982400292
711209291
587619539
114524681
351106509
82447041
859769350
376744439
239477798
592988325
947149802
471627301
265995561
225549159
251409264
467655240
681745264
627367485
504862401
391971615
476779437
21345865
522939922
937368321
906509226
593216254
263536035
214361367
161731500
189002541
950867907
115156840
435973151
407238303
506536765
376522062
444841035
168095195
933419127
131034605
681993864
708557657
849589801
466046850
926383333
159144581
625703529
385083371
148130356
303388530
314528209
179136241
334795858
142060976
151072301
829132007
835980547
854383200
384084683
556707643
530981297
979981862
492058016
871655913
468780593
712391762
500723692
157124663
489500879
844699027
867399694
136191462
336283352
906668543
668711378
387464497
840256772
485672629
253632648
538140907
328250444
141972058
952404805
41214386
547875549
318096770
604457270
882426341
986918861
634114067
61219991
285251746
782642244
57044525
92379568
199200064
10859678
138770943
981767584
341380655
836192813
714493291
334004024
324400203
822632315
885491309
565345829
863604339
777015700
338591922
242729762
824652583
20684690
486644594
704086427
429190496
349271863
852764218
208646723
47963594
51667456
970251113
382481710
428558431
207628761
566907980
203542722
512492483
658756105
18673814
35298481
170831808
555430281
743081745
616840030
331841073
754824209
580154768
518091384
653862967
738293057
951620515
388947582
442574096
831373725
584471567
746676093
518986117
422563277
297051799
131595522
977186585
751189315
169419995
884532972
473788224
261846322
644715393
593703602
526367302
143365798
282910805
45583823
787506089
914935935
810653770
133322935
902160242
630977529
149356967
137901562
678197581
739964658
255563346
580063740
472935403
401705223
611415298
485768007
573046667
801993097
341056393
710057016
547861707
396342865
585574991
957453806
145439217
373854065
715106044
610246173
63353954
529198051
467894368
695695682
651371011
84346648
118981921
841410720
854743158
866029529
434273265
372855769
654949383
700246548
92117057
658223552
553343402
808651333
457543735
513366867
835069588
238241679
922552393
42618258
149183693
361662925
354611325
479165519
338268834
726936655
969919515
397608669
316491831
723114742
336936263
339317103
680826045
132276718
935008732
724168459
116670573
948358082
127936772
879969057
132897901
660428929
185738975
704946422
765689525
975263509
96132758
239571981
420812606
714156990
858875882
361804732
246021022
983291261
768518584
587905569
777571115
445010881
326278804
570658654
845963986
