I
I
< 1 350
C 3 -4925250774549309901534880012517951725632673910192190761981925854635413134496354761437615000736876866261441575912263.515191929981446889874313445376
S 4
< 5 381
- 6
+ 3 7
C 8 -2462625387274654950767440006258975862815190205788100345235157516870055523777779098224223359806569638711027326518087.515191929981446889874313445376
S 9
< 10 380
- 11
+ 8 12
C 13 -1231312693637327475383720003129487931406448353586055136861773347987376718418491266617527539341416024935820201820999.515191929981446889874313445376
S 14
< 15 379
- 16
+ 13 17
C 18 -615656346818663737691860001564743965702077427485032532675081263546037315738847350814179629108839218048216639472455.515191929981446889874313445376
S 19
< 20 378
- 21
+ 18 22
C 23 -307828173409331868845930000782371982849891964434521230581735221325367614399025392912505673992550814604414858298183.515191929981446889874313445376
S 24
< 25 377
- 26
+ 23 27
C 28 -153914086704665934422965000391185991423799232909265579535062200215032763729114413961668696434406612882513967711047.515191929981446889874313445376
S 29
< 30 376
- 31
+ 28 32
C 33 -76957043352332967211482500195592995710752867146637754011725689659865338394158924486250207655334512021563522417479.515191929981446889874313445376
S 34
< 35 375
- 36
+ 33 37
C 38 -38478521676166483605741250097796497854229684265323841250057434382281625726681179748540963265798461591088299770695.515191929981446889874313445376
S 39
< 40 374
- 41
+ 38 42
C 43 -19239260838083241802870625048898248925968092824666884869223306743489769392942307379686341071030436375850688447303.515191929981446889874313445376
S 44
< 45 373
- 46
+ 43 47
C 48 -9619630419041620901435312524449124461837297104338406678806242924093841226072871195259029973646423768231882785607.515191929981446889874313445376
S 49
< 50 372
- 51
+ 48 52
C 53 -4809815209520810450717656262224562229771899244174167583597711014395877142638153103045374424954417464422479954759.515191929981446889874313445376
S 54
< 55 371
- 56
+ 53 57
C 58 -2404907604760405225358828131112281113739200314092048035993445059546895100920794056938546650608414312517778539335.515191929981446889874313445376
S 59
< 60 370
- 61
+ 58 62
C 63 -1202453802380202612679414065556140555722850849050988262191312082122404080062114533885132763435412736565427831623.515191929981446889874313445376
S 64
< 65 369
- 66
+ 63 67
C 68 -601226901190101306339707032778070276714676116530458375290245593410158569632774772358425819848911948589252477767.515191929981446889874313445376
S 69
< 70 368
- 71
+ 68 72
C 73 -300613450595050653169853516389035137210588750270193431839712349054035814418104891595072348055661554601164800839.515191929981446889874313445376
S 74
< 75 367
- 76
+ 73 77
C 78 -150306725297525326584926758194517567458545067140060960114445726875974436810769951213395612159036357607120962375.515191929981446889874313445376
S 79
< 80 366
- 81
+ 78 82
C 83 -75153362648762663292463379097258782582523225574994724251812415786943748007102481022557244210723759110099043143.515191929981446889874313445376
S 84
< 85 365
- 86
+ 83 87
C 88 -37576681324381331646231689548629390144512304792461606320495760242428403605268745927138060236567459861588083527.515191929981446889874313445376
S 89
< 90 364
- 91
+ 88 92
C 93 -18788340662190665823115844774314693925506844401195047354837432470170731404351878379428468249489310237332603719.515191929981446889874313445376
S 94
< 95 363
- 96
+ 93 97
C 98 -9394170331095332911557922387157345816004114205561767872008268584041895303893444605573672255950235425204863815.515191929981446889874313445376
S 99
< 100 362
- 101
+ 98 102
C 103 -4697085165547666455778961193578671761252749107745128130593686640977477253664227718646274259180698019140993863.515191929981446889874313445376
S 104
< 105 361
- 106
+ 103 107
C 108 -2348542582773833227889480596789334733877066558836808259886395669445268228549619275182575260795929316109058887.515191929981446889874313445376
S 109
< 110 360
- 111
+ 108 112
C 113 -1174271291386916613944740298394666220189225284382648324532750183679163715992315053450725761603544964593091399.515191929981446889874313445376
S 114
< 115 359
- 116
+ 113 117
C 118 -587135645693458306972370149197331963345304647155568356855927440796111459713662942584801012007352788835107655.515191929981446889874313445376
S 119
< 120 358
- 121
+ 118 122
C 123 -293567822846729153486185074598664834923344328542028373017516069354585331574336887151838637209256700956115783.515191929981446889874313445376
S 124
< 125 357
- 126
+ 123 127
C 128 -146783911423364576743092537299331270712364169235258381098310383633822267504673859435357449810208657016619847.515191929981446889874313445376
S 129
< 130 356
- 131
+ 128 132
C 133 -73391955711682288371546268649664488606874089581873385138707540773440735469842345577116856110684635046871879.515191929981446889874313445376
S 134
< 135 355
- 136
+ 133 137
C 138 -36695977855841144185773134324831097554129049755180887158906119343249969452426588647996559260922624061997895.515191929981446889874313445376
S 139
< 140 354
- 141
+ 138 142
C 143 -18347988927920572092886567162414402027756529841834638169005408628154586443718710183436410836041618569560903.515191929981446889874313445376
S 144
< 145 353
- 146
+ 143 147
C 148 -9173994463960286046443283581206054264570269885161513674055053270606894939364770951156336623601115823342407.515191929981446889874313445376
S 149
< 150 352
- 151
+ 148 152
C 153 -4586997231980143023221641790601880382977139906824951426579875591833049187187801335016299517380864450233159.515191929981446889874313445376
S 154
< 155 351
- 156
+ 153 157
< 2 350
C 159 -4925250774549309901534880012517951725632673910192190761981925854635413134496354761437615000736876866261441575912263.515191929981446889874313445376
S 160
< 161 381
- 162
+ 159 163
C 164 -2462625387274654950767440006258975862815190205788100345235157516870055523777779098224223359806569638711027326518087.515191929981446889874313445376
S 165
< 166 380
- 167
+ 164 168
C 169 -1231312693637327475383720003129487931406448353586055136861773347987376718418491266617527539341416024935820201820999.515191929981446889874313445376
S 170
< 171 379
- 172
+ 169 173
C 174 -615656346818663737691860001564743965702077427485032532675081263546037315738847350814179629108839218048216639472455.515191929981446889874313445376
S 175
< 176 378
- 177
+ 174 178
C 179 -307828173409331868845930000782371982849891964434521230581735221325367614399025392912505673992550814604414858298183.515191929981446889874313445376
S 180
< 181 377
- 182
+ 179 183
C 184 -153914086704665934422965000391185991423799232909265579535062200215032763729114413961668696434406612882513967711047.515191929981446889874313445376
S 185
< 186 376
- 187
+ 184 188
C 189 -76957043352332967211482500195592995710752867146637754011725689659865338394158924486250207655334512021563522417479.515191929981446889874313445376
S 190
< 191 375
- 192
+ 189 193
C 194 -38478521676166483605741250097796497854229684265323841250057434382281625726681179748540963265798461591088299770695.515191929981446889874313445376
S 195
< 196 374
- 197
+ 194 198
C 199 -19239260838083241802870625048898248925968092824666884869223306743489769392942307379686341071030436375850688447303.515191929981446889874313445376
S 200
< 201 373
- 202
+ 199 203
C 204 -9619630419041620901435312524449124461837297104338406678806242924093841226072871195259029973646423768231882785607.515191929981446889874313445376
S 205
< 206 372
- 207
+ 204 208
C 209 -4809815209520810450717656262224562229771899244174167583597711014395877142638153103045374424954417464422479954759.515191929981446889874313445376
S 210
< 211 371
- 212
+ 209 213
C 214 -2404907604760405225358828131112281113739200314092048035993445059546895100920794056938546650608414312517778539335.515191929981446889874313445376
S 215
< 216 370
- 217
+ 214 218
C 219 -1202453802380202612679414065556140555722850849050988262191312082122404080062114533885132763435412736565427831623.515191929981446889874313445376
S 220
< 221 369
- 222
+ 219 223
C 224 -601226901190101306339707032778070276714676116530458375290245593410158569632774772358425819848911948589252477767.515191929981446889874313445376
S 225
< 226 368
- 227
+ 224 228
C 229 -300613450595050653169853516389035137210588750270193431839712349054035814418104891595072348055661554601164800839.515191929981446889874313445376
S 230
< 231 367
- 232
+ 229 233
C 234 -150306725297525326584926758194517567458545067140060960114445726875974436810769951213395612159036357607120962375.515191929981446889874313445376
S 235
< 236 366
- 237
+ 234 238
C 239 -75153362648762663292463379097258782582523225574994724251812415786943748007102481022557244210723759110099043143.515191929981446889874313445376
S 240
< 241 365
- 242
+ 239 243
C 244 -37576681324381331646231689548629390144512304792461606320495760242428403605268745927138060236567459861588083527.515191929981446889874313445376
S 245
< 246 364
- 247
+ 244 248
C 249 -18788340662190665823115844774314693925506844401195047354837432470170731404351878379428468249489310237332603719.515191929981446889874313445376
S 250
< 251 363
- 252
+ 249 253
C 254 -9394170331095332911557922387157345816004114205561767872008268584041895303893444605573672255950235425204863815.515191929981446889874313445376
S 255
< 256 362
- 257
+ 254 258
C 259 -4697085165547666455778961193578671761252749107745128130593686640977477253664227718646274259180698019140993863.515191929981446889874313445376
S 260
< 261 361
- 262
+ 259 263
C 264 -2348542582773833227889480596789334733877066558836808259886395669445268228549619275182575260795929316109058887.515191929981446889874313445376
S 265
< 266 360
- 267
+ 264 268
C 269 -1174271291386916613944740298394666220189225284382648324532750183679163715992315053450725761603544964593091399.515191929981446889874313445376
S 270
< 271 359
- 272
+ 269 273
C 274 -587135645693458306972370149197331963345304647155568356855927440796111459713662942584801012007352788835107655.515191929981446889874313445376
S 275
< 276 358
- 277
+ 274 278
C 279 -293567822846729153486185074598664834923344328542028373017516069354585331574336887151838637209256700956115783.515191929981446889874313445376
S 280
< 281 357
- 282
+ 279 283
C 284 -146783911423364576743092537299331270712364169235258381098310383633822267504673859435357449810208657016619847.515191929981446889874313445376
S 285
< 286 356
- 287
+ 284 288
C 289 -73391955711682288371546268649664488606874089581873385138707540773440735469842345577116856110684635046871879.515191929981446889874313445376
S 290
< 291 355
- 292
+ 289 293
C 294 -36695977855841144185773134324831097554129049755180887158906119343249969452426588647996559260922624061997895.515191929981446889874313445376
S 295
< 296 354
- 297
+ 294 298
C 299 -18347988927920572092886567162414402027756529841834638169005408628154586443718710183436410836041618569560903.515191929981446889874313445376
S 300
< 301 353
- 302
+ 299 303
C 304 -9173994463960286046443283581206054264570269885161513674055053270606894939364770951156336623601115823342407.515191929981446889874313445376
S 305
< 306 352
- 307
+ 304 308
C 309 -4586997231980143023221641790601880382977139906824951426579875591833049187187801335016299517380864450233159.515191929981446889874313445376
S 310
< 311 351
- 312
+ 309 313
+ 158 314
C 315 -3440247923985107267416231342953130411194847483752421685606383259080384314132727212105027829665188529831936
S 316
< 317 351
- 318
+ 315 319
+ 156 312
C 321 -6880495847970214534832462685906260822389694967504843371212766518160768628265454424210055659330377059663872
S 322
< 323 352
- 324
+ 321 325
+ 320 326
+ 151 307
C 328 -13760991695940429069664925371812521644779389935009686742425533036321537256530908848420111318660754119327744
S 329
< 330 353
- 331
+ 328 332
+ 327 333
+ 146 302
C 335 -27521983391880858139329850743625043289558779870019373484851066072643074513061817696840222637321508238655488
S 336
< 337 354
- 338
+ 335 339
+ 334 340
+ 141 297
C 342 -55043966783761716278659701487250086579117559740038746969702132145286149026123635393680445274643016477310976
S 343
< 344 355
- 345
+ 342 346
+ 341 347
+ 136 292
C 349 -110087933567523432557319402974500173158235119480077493939404264290572298052247270787360890549286032954621952
S 350
< 351 356
- 352
+ 349 353
+ 348 354
+ 131 287
C 356 -220175867135046865114638805949000346316470238960154987878808528581144596104494541574721781098572065909243904
S 357
< 358 357
- 359
+ 356 360
+ 355 361
+ 126 282
C 363 -440351734270093730229277611898000692632940477920309975757617057162289192208989083149443562197144131818487808
S 364
< 365 358
- 366
+ 363 367
+ 362 368
+ 121 277
C 370 -880703468540187460458555223796001385265880955840619951515234114324578384417978166298887124394288263636975616
S 371
< 372 359
- 373
+ 370 374
+ 369 375
+ 116 272
C 377 -1761406937080374920917110447592002770531761911681239903030468228649156768835956332597774248788576527273951232
S 378
< 379 360
- 380
+ 377 381
+ 376 382
+ 111 267
C 384 -3522813874160749841834220895184005541063523823362479806060936457298313537671912665195548497577153054547902464
S 385
< 386 361
- 387
+ 384 388
+ 383 389
+ 106 262
C 391 -7045627748321499683668441790368011082127047646724959612121872914596627075343825330391096995154306109095804928
S 392
< 393 362
- 394
+ 391 395
+ 390 396
+ 101 257
C 398 -14091255496642999367336883580736022164254095293449919224243745829193254150687650660782193990308612218191609856
S 399
< 400 363
- 401
+ 398 402
+ 397 403
+ 96 252
C 405 -28182510993285998734673767161472044328508190586899838448487491658386508301375301321564387980617224436383219712
S 406
< 407 364
- 408
+ 405 409
+ 404 410
+ 91 247
C 412 -56365021986571997469347534322944088657016381173799676896974983316773016602750602643128775961234448872766439424
S 413
< 414 365
- 415
+ 412 416
+ 411 417
+ 86 242
C 419 -112730043973143994938695068645888177314032762347599353793949966633546033205501205286257551922468897745532878848
S 420
< 421 366
- 422
+ 419 423
+ 418 424
+ 81 237
C 426 -225460087946287989877390137291776354628065524695198707587899933267092066411002410572515103844937795491065757696
S 427
< 428 367
- 429
+ 426 430
+ 425 431
+ 76 232
C 433 -450920175892575979754780274583552709256131049390397415175799866534184132822004821145030207689875590982131515392
S 434
< 435 368
- 436
+ 433 437
+ 432 438
+ 71 227
C 440 -901840351785151959509560549167105418512262098780794830351599733068368265644009642290060415379751181964263030784
S 441
< 442 369
- 443
+ 440 444
+ 439 445
+ 66 222
C 447 -1803680703570303919019121098334210837024524197561589660703199466136736531288019284580120830759502363928526061568
S 448
< 449 370
- 450
+ 447 451
+ 446 452
+ 61 217
C 454 -3607361407140607838038242196668421674049048395123179321406398932273473062576038569160241661519004727857052123136
S 455
< 456 371
- 457
+ 454 458
+ 453 459
+ 56 212
C 461 -7214722814281215676076484393336843348098096790246358642812797864546946125152077138320483323038009455714104246272
S 462
< 463 372
- 464
+ 461 465
+ 460 466
+ 51 207
C 468 -14429445628562431352152968786673686696196193580492717285625595729093892250304154276640966646076018911428208492544
S 469
< 470 373
- 471
+ 468 472
+ 467 473
+ 46 202
C 475 -28858891257124862704305937573347373392392387160985434571251191458187784500608308553281933292152037822856416985088
S 476
< 477 374
- 478
+ 475 479
+ 474 480
+ 41 197
C 482 -57717782514249725408611875146694746784784774321970869142502382916375569001216617106563866584304075645712833970176
S 483
< 484 375
- 485
+ 482 486
+ 481 487
+ 36 192
C 489 -115435565028499450817223750293389493569569548643941738285004765832751138002433234213127733168608151291425667940352
S 490
< 491 376
- 492
+ 489 493
+ 488 494
+ 31 187
C 496 -230871130056998901634447500586778987139139097287883476570009531665502276004866468426255466337216302582851335880704
S 497
< 498 377
- 499
+ 496 500
+ 495 501
+ 26 182
C 503 -461742260113997803268895001173557974278278194575766953140019063331004552009732936852510932674432605165702671761408
S 504
< 505 378
- 506
+ 503 507
+ 502 508
+ 21 177
C 510 -923484520227995606537790002347115948556556389151533906280038126662009104019465873705021865348865210331405343522816
S 511
< 512 379
- 513
+ 510 514
+ 509 515
+ 16 172
C 517 -1846969040455991213075580004694231897113112778303067812560076253324018208038931747410043730697730420662810687045632
S 518
< 519 380
- 520
+ 517 521
+ 516 522
+ 11 167
C 524 -3693938080911982426151160009388463794226225556606135625120152506648036416077863494820087461395460841325621374091264
S 525
< 526 381
- 527
+ 524 528
+ 523 529
+ 6 162
C 531 -7387876161823964852302320018776927588452451113212271250240305013296072832155726989640174922790921682651242748182528
S 532
< 533 382
- 534
+ 531 535
+ 530 536
> 537 350
O 538
